id;name
1;Science fiction
2;Satire
3;Drama
4;Action and Adventure
5;Romance
6;Mystery
7;Horror
8;Self help
9;Health
10;Guide
11;Travel
12;Children's
13;Religion, Spirituality & New Age
14;Science
15;History
16;Math
17;Anthology
18;Poetry
19;Encyclopedias
20;Dictionaries
21;Comics
22;Art
23;Cookbooks
24;Diaries
25;Journals
26;Prayer books
27;Series
28;Trilogy
29;Biographies
30;Autobiographies
31;Fantasy